{
  "page": 1,
  "page_size": 50,
  "total_pages": 2,
  "total_items": 100,
  "customers": [
    {
      "id": "recBt9aOjK2sWaWBT",
      "fields": {
        "First Name": "Boris",
        "Last Name": "Kogan",
        "Email": "contact@themomentcatchers.com",
        "Mobile Number": "7604797969",
        "Properties": [
          "rec0lBuR4ltQ1a3rn"
        ],
        "HCP Address": "7625 E Camelback Rd, Unit 148B, Scottsdale, AZ 85251",
        "Created at": "2022-09-20T22:31:46.000Z",
        "Last Modified": "2025-05-31T15:43:40.000Z"
      },
      "createdTime": "2022-09-20T22:31:46.000Z"
    },
    {
      "id": "recTrO6ovtyVCc3mV",
      "fields": {
        "First Name": "Test",
        "Last Name": "Customer",
        "Email": "test@example.com", 
        "Mobile Number": "1234567890",
        "Properties": [
          "rec9876543210",
          "rec1234567890"
        ],
        "HCP Address": "123 Test St, Test City, AZ 85000",
        "Created at": "2023-01-01T00:00:00.000Z",
        "Last Modified": "2023-01-01T00:00:00.000Z"
      },
      "createdTime": "2023-01-01T00:00:00.000Z"
    }
  ]
}