{
  "page": 1,
  "page_size": 50,
  "total_pages": 8,
  "total_items": 368,
  "customers": [
    {
      "id": "cus_c663af57cdbc4053a09fb6ec952baab0",
      "first_name": "ICS Test",
      "last_name": "Customer",
      "email": "ics.test@example.com",
      "mobile_number": "6025550103",
      "addresses": []
    },
    {
      "id": "cus_b9611ff016e84666af28940956d70a4e",
      "first_name": "ICS",
      "last_name": "Test Customer",
      "email": "ics.test@example.com",
      "mobile_number": "5550103000",
      "addresses": []
    },
    {
      "id": "cus_f87d34d6dcbf4952b50749050bccf6a2",
      "first_name": "Boris",
      "last_name": "Blinderman Test",
      "email": "boris.test@hcp_prod_testing.com",
      "addresses": [
        {
          "id": "adr_a0c57cbc8f1c438b8ddb22fe8d1aabd0",
          "type": "service",
          "street": "123 Test Rd, #2D",
          "city": "Costa Mesa",
          "state": "CA",
          "zip": "92626"
        }
      ]
    }
  ]
}